module bitbucket.org/perfectgentlemande/go-mongodb-crud-api-example

go 1.17

require (
	github.com/go-chi/chi v1.5.4
	github.com/google/uuid v1.3.0
	go.mongodb.org/mongo-driver v1.7.4
	go.uber.org/zap v1.19.1
	golang.org/x/sync v0.0.0-20210220032951-036812b2e83c
)

require (
	github.com/go-stack/stack v1.8.0 // indirect
	github.com/golang/snappy v0.0.1 // indirect
	github.com/klauspost/compress v1.13.6 // indirect
	github.com/pkg/errors v0.9.1 // indirect
	github.com/xdg-go/pbkdf2 v1.0.0 // indirect
	github.com/xdg-go/scram v1.0.2 // indirect
	github.com/xdg-go/stringprep v1.0.2 // indirect
	github.com/youmark/pkcs8 v0.0.0-20181117223130-1be2e3e5546d // indirect
	go.uber.org/atomic v1.7.0 // indirect
	go.uber.org/multierr v1.6.0 // indirect
	golang.org/x/crypto v0.0.0-20200302210943-78000ba7a073 // indirect
	golang.org/x/text v0.3.5 // indirect
)
